final-project.utf8
…
Ha = touchdown likelihood on remaining drives > touchdown likelihood on first drive

Significance threshold for p = 0.05

We can assume that the proportions representing touchdown likelihood follow a normal distribution, are independent, and random.

We can observe from the graph that touchdown likelihood is slightly higher for remaining drives than first drive. But using our difference in proportions significance test, we fail to reject our null hypothesis with a p-value 0.268209728341841. We see that there is NOT a significant difference in touchdown likelihood between first and remaining drives.

Considering our previous examination of differences in play type between first and remaining drives, this may suggest that although play selection varies between the first drive and remaining drives, this doesnt seem to affect differences in overall average yards per play and touchdown likelihood per play. We see that a scripted drive doesnt produce greater effectiveness on offense.

Do teams that go for it more on 4th down tend to win more games?

Here we are trying to investigate if the frequency of attempting to run or pass on 4th down, rather than following the traditional route of punting, affects a teams win percentage. We also show if converting more of these 4th down attempts (reaching a first down) has an affect on win percentage.

## # A tibble: 32 x 10
##    team   wins loss_or_tie win_pct posteam total attempts  made pct_made
##    <chr> <int>       <dbl>   <dbl> <chr>   <int>    <dbl> <int>    <dbl>
##  1 ARI       5          11   0.312 ARI       130       20    13     65  
##  2 ATL       8           8   0.5   ATL       118       21    13     61.9
##  3 BAL      14           2   0.875 BAL       101       24    17     70.8
##  4 BUF      10           6   0.625 BUF       130       18     8     44.4
##  5 CAR       6          10   0.375 CAR       132       24    12     50  
##  6 CHI       8           8   0.5   CHI       130       21     7     33.3
##  7 CIN       2          14   0.125 CIN       138       26    13     50  
##  8 CLE       6          10   0.375 CLE       119       17     7     41.2
##  9 DAL       8           8   0.5   DAL       106       16     7     43.8
## 10 DEN       7           9   0.438 DEN       136       16    11     68.8
## #  with 22 more rows, and 1 more variable: pct_attempted <dbl>
…
